172.18.0.1 - - [28/Sep/2021:09:23:17 +0000] "GET / HTTP/1.1" 200 735 "-" "Mozilla/5.0 (X11; Linux x86_64; rv:78.0) Gecko/20100101 Firefox/78.0"
172.18.0.1 - - [28/Sep/2021:09:23:23 +0000] "POST /list.php HTTP/1.1" 200 866 "http://localhost:1080/" "Mozilla/5.0 (X11; Linux x86_64; rv:78.0) Gecko/20100101 Firefox/78.0"
172.18.0.1 - - [28/Sep/2021:09:23:58 +0000] "POST /list.php HTTP/1.1" 200 843 "http://localhost:1080/" "Mozilla/5.0 (X11; Linux x86_64; rv:78.0) Gecko/20100101 Firefox/78.0"
172.18.0.1 - - [28/Sep/2021:09:25:36 +0000] "POST /list.php HTTP/1.1" 200 863 "http://localhost:1080/" "Mozilla/5.0 (X11; Linux x86_64; rv:78.0) Gecko/20100101 Firefox/78.0"
172.18.0.1 - - [28/Sep/2021:09:26:19 +0000] "POST /list.php HTTP/1.1" 200 842 "http://localhost:1080/" "Mozilla/5.0 (X11; Linux x86_64; rv:78.0) Gecko/20100101 Firefox/78.0"
172.18.0.1 - - [28/Sep/2021:09:26:30 +0000] "POST /list.php HTTP/1.1" 200 842 "http://localhost:1080/" "Mozilla/5.0 (X11; Linux x86_64; rv:78.0) Gecko/20100101 Firefox/78.0"
172.18.0.1 - - [28/Sep/2021:09:26:41 +0000] "POST /list.php HTTP/1.1" 200 843 "http://localhost:1080/" "Mozilla/5.0 (X11; Linux x86_64; rv:78.0) Gecko/20100101 Firefox/78.0"
172.18.0.1 - - [28/Sep/2021:09:29:34 +0000] "POST /list.php HTTP/1.1" 200 879 "http://localhost:1080/" "Mozilla/5.0 (X11; Linux x86_64; rv:78.0) Gecko/20100101 Firefox/78.0"
172.18.0.1 - - [28/Sep/2021:09:30:04 +0000] "POST /list.php HTTP/1.1" 200 864 "http://localhost:1080/" "Mozilla/5.0 (X11; Linux x86_64; rv:78.0) Gecko/20100101 Firefox/78.0"
172.18.0.1 - - [28/Sep/2021:09:30:18 +0000] "POST /list.php HTTP/1.1" 200 864 "http://localhost:1080/" "Mozilla/5.0 (X11; Linux x86_64; rv:78.0) Gecko/20100101 Firefox/78.0"
172.18.0.1 - - [28/Sep/2021:09:31:05 +0000] "POST /list.php HTTP/1.1" 200 863 "http://localhost:1080/" "Mozilla/5.0 (X11; Linux x86_64; rv:78.0) Gecko/20100101 Firefox/78.0"
172.18.0.1 - - [28/Sep/2021:09:33:34 +0000] "POST /list.php HTTP/1.1" 200 863 "http://localhost:1080/" "Mozilla/5.0 (X11; Linux x86_64; rv:78.0) Gecko/20100101 Firefox/78.0"
172.18.0.1 - - [28/Sep/2021:09:34:29 +0000] "POST /list.php HTTP/1.1" 200 864 "http://localhost:1080/" "Mozilla/5.0 (X11; Linux x86_64; rv:78.0) Gecko/20100101 Firefox/78.0"
172.18.0.1 - - [28/Sep/2021:09:44:28 +0000] "POST /list.php HTTP/1.1" 200 836 "http://localhost:1080/" "Mozilla/5.0 (X11; Linux x86_64; rv:78.0) Gecko/20100101 Firefox/78.0"
172.18.0.1 - - [28/Sep/2021:09:45:04 +0000] "POST /list.php HTTP/1.1" 200 886 "http://localhost:1080/" "Mozilla/5.0 (X11; Linux x86_64; rv:78.0) Gecko/20100101 Firefox/78.0"
172.18.0.1 - - [28/Sep/2021:09:45:19 +0000] "POST /list.php HTTP/1.1" 200 958 "http://localhost:1080/" "Mozilla/5.0 (X11; Linux x86_64; rv:78.0) Gecko/20100101 Firefox/78.0"
172.18.0.1 - - [28/Sep/2021:09:46:11 +0000] "POST /list.php HTTP/1.1" 200 119 "http://localhost:1080/" "Mozilla/5.0 (X11; Linux x86_64; rv:78.0) Gecko/20100101 Firefox/78.0"
172.18.0.1 - - [28/Sep/2021:09:47:10 +0000] "POST /list.php HTTP/1.1" 200 958 "http://localhost:1080/" "Mozilla/5.0 (X11; Linux x86_64; rv:78.0) Gecko/20100101 Firefox/78.0"
172.18.0.1 - - [28/Sep/2021:09:47:15 +0000] "POST /list.php HTTP/1.1" 200 885 "http://localhost:1080/" "Mozilla/5.0 (X11; Linux x86_64; rv:78.0) Gecko/20100101 Firefox/78.0"
172.18.0.1 - - [28/Sep/2021:09:47:21 +0000] "POST /products/products.php HTTP/1.1" 200 121 "http://localhost:1080/list.php" "Mozilla/5.0 (X11; Linux x86_64; rv:78.0) Gecko/20100101 Firefox/78.0"
172.18.0.1 - - [28/Sep/2021:10:02:30 +0000] "POST /products/products.php HTTP/1.1" 200 140 "http://localhost:1080/list.php" "Mozilla/5.0 (X11; Linux x86_64; rv:78.0) Gecko/20100101 Firefox/78.0"
172.18.0.1 - - [28/Sep/2021:10:02:47 +0000] "POST /products/products.php HTTP/1.1" 200 140 "http://localhost:1080/list.php" "Mozilla/5.0 (X11; Linux x86_64; rv:78.0) Gecko/20100101 Firefox/78.0"
172.18.0.1 - - [28/Sep/2021:10:04:06 +0000] "POST /products/products.php HTTP/1.1" 200 590 "http://localhost:1080/list.php" "Mozilla/5.0 (X11; Linux x86_64; rv:78.0) Gecko/20100101 Firefox/78.0"
172.18.0.1 - - [28/Sep/2021:10:05:12 +0000] "POST /products/products.php HTTP/1.1" 200 531 "http://localhost:1080/list.php" "Mozilla/5.0 (X11; Linux x86_64; rv:78.0) Gecko/20100101 Firefox/78.0"
172.18.0.1 - - [28/Sep/2021:10:05:23 +0000] "POST /products/products.php HTTP/1.1" 200 531 "http://localhost:1080/list.php" "Mozilla/5.0 (X11; Linux x86_64; rv:78.0) Gecko/20100101 Firefox/78.0"
172.18.0.1 - - [28/Sep/2021:10:08:38 +0000] "POST /products/products.php HTTP/1.1" 200 527 "http://localhost:1080/list.php" "Mozilla/5.0 (X11; Linux x86_64; rv:78.0) Gecko/20100101 Firefox/78.0"
172.18.0.1 - - [28/Sep/2021:10:11:43 +0000] "POST /products/products.php HTTP/1.1" 200 523 "http://localhost:1080/list.php" "Mozilla/5.0 (X11; Linux x86_64; rv:78.0) Gecko/20100101 Firefox/78.0"
172.18.0.1 - - [28/Sep/2021:10:13:01 +0000] "POST /products/products.php HTTP/1.1" 200 520 "http://localhost:1080/list.php" "Mozilla/5.0 (X11; Linux x86_64; rv:78.0) Gecko/20100101 Firefox/78.0"
172.18.0.1 - - [28/Sep/2021:10:14:12 +0000] "POST /products/products.php HTTP/1.1" 200 520 "http://localhost:1080/list.php" "Mozilla/5.0 (X11; Linux x86_64; rv:78.0) Gecko/20100101 Firefox/78.0"
172.18.0.1 - - [28/Sep/2021:10:14:18 +0000] "POST /products/products.php HTTP/1.1" 200 529 "http://localhost:1080/list.php" "Mozilla/5.0 (X11; Linux x86_64; rv:78.0) Gecko/20100101 Firefox/78.0"
172.18.0.1 - - [28/Sep/2021:10:27:58 +0000] "POST /products/products.php HTTP/1.1" 200 581 "http://localhost:1080/list.php" "Mozilla/5.0 (X11; Linux x86_64; rv:78.0) Gecko/20100101 Firefox/78.0"
172.18.0.1 - - [28/Sep/2021:10:29:04 +0000] "POST /products/products.php HTTP/1.1" 200 156 "http://localhost:1080/list.php" "Mozilla/5.0 (X11; Linux x86_64; rv:78.0) Gecko/20100101 Firefox/78.0"
172.18.0.1 - - [28/Sep/2021:10:29:24 +0000] "POST /products/products.php HTTP/1.1" 200 581 "http://localhost:1080/list.php" "Mozilla/5.0 (X11; Linux x86_64; rv:78.0) Gecko/20100101 Firefox/78.0"
172.18.0.1 - - [28/Sep/2021:10:29:52 +0000] "POST /products/products.php HTTP/1.1" 200 581 "http://localhost:1080/list.php" "Mozilla/5.0 (X11; Linux x86_64; rv:78.0) Gecko/20100101 Firefox/78.0"
172.18.0.1 - - [28/Sep/2021:10:29:58 +0000] "POST /products/products.php HTTP/1.1" 200 581 "http://localhost:1080/list.php" "Mozilla/5.0 (X11; Linux x86_64; rv:78.0) Gecko/20100101 Firefox/78.0"
172.18.0.1 - - [28/Sep/2021:10:30:16 +0000] "POST /products/products.php HTTP/1.1" 200 705 "http://localhost:1080/list.php" "Mozilla/5.0 (X11; Linux x86_64; rv:78.0) Gecko/20100101 Firefox/78.0"
172.18.0.1 - - [28/Sep/2021:10:30:26 +0000] "POST /products/products.php HTTP/1.1" 200 586 "http://localhost:1080/list.php" "Mozilla/5.0 (X11; Linux x86_64; rv:78.0) Gecko/20100101 Firefox/78.0"
172.18.0.1 - - [28/Sep/2021:10:35:55 +0000] "POST /products/products.php HTTP/1.1" 200 623 "http://localhost:1080/list.php" "Mozilla/5.0 (X11; Linux x86_64; rv:78.0) Gecko/20100101 Firefox/78.0"
172.18.0.1 - - [28/Sep/2021:10:36:06 +0000] "POST /products/products.php HTTP/1.1" 200 630 "http://localhost:1080/list.php" "Mozilla/5.0 (X11; Linux x86_64; rv:78.0) Gecko/20100101 Firefox/78.0"
172.18.0.1 - - [28/Sep/2021:10:36:54 +0000] "POST /products/products.php HTTP/1.1" 200 630 "http://localhost:1080/list.php" "Mozilla/5.0 (X11; Linux x86_64; rv:78.0) Gecko/20100101 Firefox/78.0"
172.18.0.1 - - [01/Oct/2021:09:44:37 +0000] "GET / HTTP/1.1" 200 1337 "-" "Mozilla/5.0 (X11; Linux x86_64; rv:78.0) Gecko/20100101 Firefox/78.0"
172.18.0.1 - - [01/Oct/2021:09:44:43 +0000] "GET /futbol_01.php HTTP/1.1" 200 740 "http://localhost:1080/" "Mozilla/5.0 (X11; Linux x86_64; rv:78.0) Gecko/20100101 Firefox/78.0"
172.18.0.1 - - [01/Oct/2021:09:44:48 +0000] "POST /futbol_02.php HTTP/1.1" 200 911 "http://localhost:1080/futbol_01.php" "Mozilla/5.0 (X11; Linux x86_64; rv:78.0) Gecko/20100101 Firefox/78.0"
172.18.0.1 - - [01/Oct/2021:09:45:03 +0000] "POST /futbol_02.php HTTP/1.1" 200 913 "http://localhost:1080/futbol_01.php" "Mozilla/5.0 (X11; Linux x86_64; rv:78.0) Gecko/20100101 Firefox/78.0"
172.18.0.1 - - [01/Oct/2021:09:46:00 +0000] "POST /futbol_02.php HTTP/1.1" 200 851 "http://localhost:1080/futbol_01.php" "Mozilla/5.0 (X11; Linux x86_64; rv:78.0) Gecko/20100101 Firefox/78.0"
172.18.0.1 - - [01/Oct/2021:09:47:01 +0000] "POST /futbol_02.php HTTP/1.1" 200 870 "http://localhost:1080/futbol_01.php" "Mozilla/5.0 (X11; Linux x86_64; rv:78.0) Gecko/20100101 Firefox/78.0"
172.18.0.1 - - [01/Oct/2021:09:59:58 +0000] "POST /futbol_02.php HTTP/1.1" 200 940 "http://localhost:1080/futbol_01.php" "Mozilla/5.0 (X11; Linux x86_64; rv:78.0) Gecko/20100101 Firefox/78.0"
172.18.0.1 - - [01/Oct/2021:10:00:10 +0000] "POST /futbol_02.php HTTP/1.1" 200 954 "http://localhost:1080/futbol_01.php" "Mozilla/5.0 (X11; Linux x86_64; rv:78.0) Gecko/20100101 Firefox/78.0"
172.18.0.1 - - [01/Oct/2021:10:01:29 +0000] "POST /futbol_02.php HTTP/1.1" 200 958 "http://localhost:1080/futbol_01.php" "Mozilla/5.0 (X11; Linux x86_64; rv:78.0) Gecko/20100101 Firefox/78.0"
172.18.0.1 - - [01/Oct/2021:10:01:38 +0000] "POST /futbol_02.php HTTP/1.1" 200 958 "http://localhost:1080/futbol_01.php" "Mozilla/5.0 (X11; Linux x86_64; rv:78.0) Gecko/20100101 Firefox/78.0"
172.18.0.1 - - [01/Oct/2021:10:01:52 +0000] "GET /futbol_01.php HTTP/1.1" 200 740 "http://localhost:1080/" "Mozilla/5.0 (X11; Linux x86_64; rv:78.0) Gecko/20100101 Firefox/78.0"
172.18.0.1 - - [01/Oct/2021:10:01:53 +0000] "POST /futbol_02.php HTTP/1.1" 200 1008 "http://localhost:1080/futbol_01.php" "Mozilla/5.0 (X11; Linux x86_64; rv:78.0) Gecko/20100101 Firefox/78.0"
172.18.0.1 - - [01/Oct/2021:10:02:57 +0000] "POST /futbol_02.php HTTP/1.1" 200 1008 "http://localhost:1080/futbol_01.php" "Mozilla/5.0 (X11; Linux x86_64; rv:78.0) Gecko/20100101 Firefox/78.0"
172.18.0.1 - - [01/Oct/2021:10:04:20 +0000] "POST /futbol_02.php HTTP/1.1" 200 1026 "http://localhost:1080/futbol_01.php" "Mozilla/5.0 (X11; Linux x86_64; rv:78.0) Gecko/20100101 Firefox/78.0"
172.18.0.1 - - [01/Oct/2021:10:05:22 +0000] "POST /futbol_02.php HTTP/1.1" 200 1060 "http://localhost:1080/futbol_01.php" "Mozilla/5.0 (X11; Linux x86_64; rv:78.0) Gecko/20100101 Firefox/78.0"
172.18.0.1 - - [01/Oct/2021:10:05:44 +0000] "POST /futbol_02.php HTTP/1.1" 200 1060 "http://localhost:1080/futbol_01.php" "Mozilla/5.0 (X11; Linux x86_64; rv:78.0) Gecko/20100101 Firefox/78.0"
172.18.0.1 - - [01/Oct/2021:10:14:45 +0000] "POST /futbol_02.php HTTP/1.1" 200 908 "http://localhost:1080/futbol_01.php" "Mozilla/5.0 (X11; Linux x86_64; rv:78.0) Gecko/20100101 Firefox/78.0"
172.18.0.1 - - [01/Oct/2021:10:15:01 +0000] "POST /futbol_03.php HTTP/1.1" 200 579 "http://localhost:1080/futbol_02.php" "Mozilla/5.0 (X11; Linux x86_64; rv:78.0) Gecko/20100101 Firefox/78.0"
172.18.0.1 - - [01/Oct/2021:10:16:20 +0000] "POST /futbol_03.php HTTP/1.1" 200 579 "http://localhost:1080/futbol_02.php" "Mozilla/5.0 (X11; Linux x86_64; rv:78.0) Gecko/20100101 Firefox/78.0"
172.18.0.1 - - [01/Oct/2021:10:16:25 +0000] "POST /futbol_03.php HTTP/1.1" 200 579 "http://localhost:1080/futbol_02.php" "Mozilla/5.0 (X11; Linux x86_64; rv:78.0) Gecko/20100101 Firefox/78.0"
172.18.0.1 - - [01/Oct/2021:10:24:52 +0000] "POST /futbol_03.php HTTP/1.1" 200 529 "http://localhost:1080/futbol_02.php" "Mozilla/5.0 (X11; Linux x86_64; rv:78.0) Gecko/20100101 Firefox/78.0"
172.18.0.1 - - [01/Oct/2021:10:27:04 +0000] "POST /futbol_03.php HTTP/1.1" 200 565 "http://localhost:1080/futbol_02.php" "Mozilla/5.0 (X11; Linux x86_64; rv:78.0) Gecko/20100101 Firefox/78.0"
172.18.0.1 - - [01/Oct/2021:10:27:40 +0000] "POST /futbol_03.php HTTP/1.1" 200 566 "http://localhost:1080/futbol_02.php" "Mozilla/5.0 (X11; Linux x86_64; rv:78.0) Gecko/20100101 Firefox/78.0"
172.18.0.1 - - [01/Oct/2021:10:29:32 +0000] "POST /futbol_02.php HTTP/1.1" 200 911 "http://localhost:1080/futbol_01.php" "Mozilla/5.0 (X11; Linux x86_64; rv:78.0) Gecko/20100101 Firefox/78.0"
172.18.0.1 - - [01/Oct/2021:10:29:38 +0000] "POST /futbol_03.php HTTP/1.1" 200 597 "http://localhost:1080/futbol_02.php" "Mozilla/5.0 (X11; Linux x86_64; rv:78.0) Gecko/20100101 Firefox/78.0"
172.18.0.1 - - [01/Oct/2021:10:29:54 +0000] "GET /futbol_03.php HTTP/1.1" 200 662 "-" "Mozilla/5.0 (X11; Linux x86_64; rv:78.0) Gecko/20100101 Firefox/78.0"
172.18.0.1 - - [01/Oct/2021:10:29:56 +0000] "GET / HTTP/1.1" 304 0 "-" "Mozilla/5.0 (X11; Linux x86_64; rv:78.0) Gecko/20100101 Firefox/78.0"
172.18.0.1 - - [01/Oct/2021:10:29:59 +0000] "GET /prod_list_01.php HTTP/1.1" 200 729 "http://localhost:1080/" "Mozilla/5.0 (X11; Linux x86_64; rv:78.0) Gecko/20100101 Firefox/78.0"
172.18.0.1 - - [01/Oct/2021:10:30:02 +0000] "POST /list.php HTTP/1.1" 200 901 "http://localhost:1080/prod_list_01.php" "Mozilla/5.0 (X11; Linux x86_64; rv:78.0) Gecko/20100101 Firefox/78.0"
172.18.0.1 - - [01/Oct/2021:10:30:08 +0000] "POST /products/products.php HTTP/1.1" 200 674 "http://localhost:1080/list.php" "Mozilla/5.0 (X11; Linux x86_64; rv:78.0) Gecko/20100101 Firefox/78.0"
172.18.0.1 - - [01/Oct/2021:10:34:44 +0000] "POST /futbol_03.php HTTP/1.1" 200 766 "http://localhost:1080/futbol_02.php" "Mozilla/5.0 (X11; Linux x86_64; rv:78.0) Gecko/20100101 Firefox/78.0"
172.18.0.1 - - [01/Oct/2021:10:35:22 +0000] "POST /futbol_03.php HTTP/1.1" 200 784 "http://localhost:1080/futbol_02.php" "Mozilla/5.0 (X11; Linux x86_64; rv:78.0) Gecko/20100101 Firefox/78.0"
172.18.0.1 - - [01/Oct/2021:10:36:44 +0000] "POST /futbol_03.php HTTP/1.1" 200 784 "http://localhost:1080/futbol_02.php" "Mozilla/5.0 (X11; Linux x86_64; rv:78.0) Gecko/20100101 Firefox/78.0"
172.18.0.1 - - [01/Oct/2021:10:38:06 +0000] "POST /futbol_03.php HTTP/1.1" 200 795 "http://localhost:1080/futbol_02.php" "Mozilla/5.0 (X11; Linux x86_64; rv:78.0) Gecko/20100101 Firefox/78.0"
172.18.0.1 - - [01/Oct/2021:10:38:44 +0000] "POST /futbol_03.php HTTP/1.1" 200 795 "http://localhost:1080/futbol_02.php" "Mozilla/5.0 (X11; Linux x86_64; rv:78.0) Gecko/20100101 Firefox/78.0"
172.18.0.1 - - [01/Oct/2021:10:41:07 +0000] "POST /futbol_03.php HTTP/1.1" 200 795 "http://localhost:1080/futbol_02.php" "Mozilla/5.0 (X11; Linux x86_64; rv:78.0) Gecko/20100101 Firefox/78.0"
172.18.0.1 - - [01/Oct/2021:10:41:20 +0000] "POST /futbol_02.php HTTP/1.1" 200 910 "http://localhost:1080/futbol_01.php" "Mozilla/5.0 (X11; Linux x86_64; rv:78.0) Gecko/20100101 Firefox/78.0"
172.18.0.1 - - [01/Oct/2021:10:41:41 +0000] "POST /futbol_03.php HTTP/1.1" 200 745 "http://localhost:1080/futbol_02.php" "Mozilla/5.0 (X11; Linux x86_64; rv:78.0) Gecko/20100101 Firefox/78.0"
172.18.0.1 - - [01/Oct/2021:10:42:28 +0000] "POST /futbol_03.php HTTP/1.1" 200 751 "http://localhost:1080/futbol_02.php" "Mozilla/5.0 (X11; Linux x86_64; rv:78.0) Gecko/20100101 Firefox/78.0"
172.18.0.1 - - [01/Oct/2021:10:55:03 +0000] "POST /futbol_03.php HTTP/1.1" 200 795 "http://localhost:1080/futbol_02.php" "Mozilla/5.0 (X11; Linux x86_64; rv:78.0) Gecko/20100101 Firefox/78.0"
172.18.0.1 - - [01/Oct/2021:10:55:59 +0000] "POST /futbol_03.php HTTP/1.1" 200 810 "http://localhost:1080/futbol_02.php" "Mozilla/5.0 (X11; Linux x86_64; rv:78.0) Gecko/20100101 Firefox/78.0"
172.18.0.1 - - [01/Oct/2021:10:56:22 +0000] "POST /futbol_03.php HTTP/1.1" 200 678 "http://localhost:1080/futbol_02.php" "Mozilla/5.0 (X11; Linux x86_64; rv:78.0) Gecko/20100101 Firefox/78.0"
172.18.0.1 - - [01/Oct/2021:10:56:30 +0000] "POST /futbol_02.php HTTP/1.1" 200 969 "http://localhost:1080/futbol_01.php" "Mozilla/5.0 (X11; Linux x86_64; rv:78.0) Gecko/20100101 Firefox/78.0"
172.18.0.1 - - [01/Oct/2021:10:56:52 +0000] "POST /futbol_03.php HTTP/1.1" 200 705 "http://localhost:1080/futbol_02.php" "Mozilla/5.0 (X11; Linux x86_64; rv:78.0) Gecko/20100101 Firefox/78.0"
172.18.0.1 - - [01/Oct/2021:10:57:56 +0000] "POST /futbol_03.php HTTP/1.1" 200 705 "http://localhost:1080/futbol_02.php" "Mozilla/5.0 (X11; Linux x86_64; rv:78.0) Gecko/20100101 Firefox/78.0"
172.18.0.1 - - [01/Oct/2021:10:58:26 +0000] "POST /futbol_03.php HTTP/1.1" 200 705 "http://localhost:1080/futbol_02.php" "Mozilla/5.0 (X11; Linux x86_64; rv:78.0) Gecko/20100101 Firefox/78.0"
172.18.0.1 - - [01/Oct/2021:10:58:54 +0000] "GET /futbol_01.php HTTP/1.1" 200 740 "-" "Mozilla/5.0 (X11; Linux x86_64; rv:78.0) Gecko/20100101 Firefox/78.0"
172.18.0.1 - - [01/Oct/2021:10:59:15 +0000] "GET /prod_list_01.php HTTP/1.1" 200 729 "-" "Mozilla/5.0 (X11; Linux x86_64; rv:78.0) Gecko/20100101 Firefox/78.0"
172.18.0.1 - - [01/Oct/2021:10:59:17 +0000] "POST /list.php HTTP/1.1" 200 861 "http://localhost:1080/prod_list_01.php" "Mozilla/5.0 (X11; Linux x86_64; rv:78.0) Gecko/20100101 Firefox/78.0"
172.18.0.1 - - [01/Oct/2021:10:59:20 +0000] "POST /products/products.php HTTP/1.1" 200 645 "http://localhost:1080/list.php" "Mozilla/5.0 (X11; Linux x86_64; rv:78.0) Gecko/20100101 Firefox/78.0"
